ENTREZID	UNIGENE
166	Hs.515053
3899	Hs.444414
196	Hs.171189
326	Hs.129829
8092	Hs.41683
367	Hs.76704
57492	Hs.291587
57492	Hs.744461
1820	Hs.501296
1820	Hs.660769
5926	Hs.161000
405	Hs.632446
9915	Hs.459070
406	Hs.65734
51008	Hs.500007
429	Hs.703025
1386	Hs.592510
467	Hs.460
468	Hs.496487
22809	Hs.9754
11016	Hs.12286
11016	Hs.633602
571	Hs.154276
60468	Hs.269764
573	Hs.377484
8538	Hs.591944
10538	Hs.509964
604	Hs.478588
8553	Hs.744856
79365	Hs.177841
2186	Hs.444200
29117	Hs.437894
9044	Hs.500526
863	Hs.513811
905	Hs.744115
1029	Hs.512599
1044	Hs.1545
1045	Hs.127383
1045	Hs.174249
1045	Hs.740844
1050	Hs.76171
1051	Hs.517106
1051	Hs.719041
1051	Hs.720603
1052	Hs.440829
1053	Hs.558308
10153	Hs.135406
4261	Hs.592051
4261	Hs.701991
10370	Hs.82071
9575	Hs.436975
9575	Hs.689578
4849	Hs.343571
9318	Hs.369614
1385	Hs.516646
1385	Hs.717136
10488	Hs.522110
90993	Hs.405961
84699	Hs.247744
148327	Hs.372924
148327	Hs.745148
1390	Hs.200250
1406	Hs.617342
1406	Hs.633434
1406	Hs.639114
1488	Hs.501345
10664	Hs.368367
1499	Hs.476018
1499	Hs.712929
1523	Hs.191482
23316	Hs.124953
1616	Hs.336916
1628	Hs.414480
1628	Hs.528006
55802	Hs.476353
1649	Hs.505777
1654	Hs.728563
1654	Hs.743263
1655	Hs.279806
1746	Hs.419
1749	Hs.99348
9988	Hs.196129
10589	Hs.356742
1869	Hs.654393
1870	Hs.194333
1874	Hs.108371
1876	Hs.603093
144455	Hs.416375
1958	Hs.326035
1958	Hs.708393
1961	Hs.3052
26298	Hs.653859
1997	Hs.135646
1998	Hs.634040
1999	Hs.603657
2000	Hs.271940
2001	Hs.11713
2002	Hs.181128
2002	Hs.715039
2002	Hs.740673
2005	Hs.497520
2005	Hs.602654
8320	Hs.591663
8320	Hs.734211
2033	Hs.517517
2033	Hs.655211
2034	Hs.468410
2100	Hs.660607
2100	Hs.734038
2100	Hs.734416
2101	Hs.110849
2104	Hs.444225
2104	Hs.738938
2113	Hs.369438
2117	Hs.105636
2118	Hs.434059
2119	Hs.43697
2130	Hs.374477
2146	Hs.444082
2146	Hs.732308
54738	Hs.234759
2274	Hs.443687
2313	Hs.504281
2353	Hs.25647
2354	Hs.590958
8061	Hs.283565
2355	Hs.220971
2355	Hs.596972
3169	Hs.163484
2296	Hs.348883
27022	Hs.546573
2298	Hs.584759
2294	Hs.155591
2294	Hs.690163
2295	Hs.484423
8928	Hs.708365
2299	Hs.87236
55810	Hs.120844
221937	Hs.487393
2300	Hs.533830
668	Hs.289292
2305	Hs.239
2305	Hs.735243
2308	Hs.370666
2309	Hs.220950
27086	Hs.59368
93986	Hs.282787
94234	Hs.591352
2521	Hs.46894
2551	Hs.473470
2623	Hs.765
2624	Hs.367725
2625	Hs.524134
2626	Hs.243987
140628	Hs.352250
2627	Hs.514746
2627	Hs.741506
57459	Hs.4779
57459	Hs.596854
8521	Hs.23589
8521	Hs.28346
9247	Hs.227098
2672	Hs.73172
2735	Hs.632702
2736	Hs.111867
2737	Hs.21509
10691	Hs.632373
26205	Hs.473286
219409	Hs.351785
11036	Hs.732016
2959	Hs.481852
2965	Hs.577202
2966	Hs.191356
2966	Hs.607501
2968	Hs.485070
9569	Hs.647056
2971	Hs.445977
9421	Hs.152531
9464	Hs.388245
3054	Hs.83634
8841	Hs.519632
9759	Hs.20516
10014	Hs.438782
10013	Hs.6764
51564	Hs.200063
54626	Hs.118727
390992	Hs.532677
3090	Hs.72956
3090	Hs.695682
3091	Hs.597216
3091	Hs.719495
3097	Hs.510172
3131	Hs.196952
3146	Hs.434102
3146	Hs.593339
3146	Hs.596078
3148	Hs.434953
9324	Hs.77558
3167	Hs.444756
6927	Hs.654455
6928	Hs.191144
3182	Hs.591731
3182	Hs.715055
3198	Hs.67397
3207	Hs.249171
3200	Hs.659337
3200	Hs.732333
3202	Hs.655218
3204	Hs.610216
3204	Hs.660918
3205	Hs.659350
3211	Hs.99992
3212	Hs.514289
3213	Hs.654560
3213	Hs.675434
3213	Hs.687723
3214	Hs.664706
3215	Hs.654456
3217	Hs.436181
3219	Hs.463350
3226	Hs.44276
3221	Hs.549040
3223	Hs.549040
3236	Hs.123070
3239	Hs.152414
3232	Hs.93574
3297	Hs.530227
3299	Hs.512156
3299	Hs.710714
10320	Hs.435949
10320	Hs.488251
10320	Hs.646004
10320	Hs.731495
22806	Hs.371680
3659	Hs.436061
3660	Hs.654566
3661	Hs.75254
3661	Hs.289052
3661	Hs.731922
3663	Hs.521181
3665	Hs.166120
3394	Hs.137427
23421	Hs.166539
122953	Hs.196482
3725	Hs.696684
3726	Hs.25292
3727	Hs.2780
2648	Hs.463045
30818	Hs.437376
5927	Hs.76272
10765	Hs.18891
10765	Hs.443650
10661	Hs.37860
7071	Hs.435001
11278	Hs.373857
11278	Hs.729350
51621	Hs.376443
51621	Hs.525752
51621	Hs.585100
28999	Hs.272215
83855	Hs.136280
9314	Hs.376206
688	Hs.508234
8609	Hs.59908
8609	Hs.471221
687	Hs.150557
687	Hs.602267
51176	Hs.743478
9355	Hs.696425
8022	Hs.148427
4010	Hs.129133
4026	Hs.720220
389692	Hs.521914
9935	Hs.169487
23764	Hs.517617
4097	Hs.252229
4097	Hs.744113
7975	Hs.520612
4149	Hs.285354
4150	Hs.23650
4152	Hs.405610
8932	Hs.25674
2122	Hs.744090
9412	Hs.286145
9862	Hs.462983
4205	Hs.268675
100271849	Hs.153629
4209	Hs.314327
4209	Hs.744524
4211	Hs.526754
4211	Hs.603755
4212	Hs.510989
4222	Hs.438
4223	Hs.170355
145873	Hs.37311
4286	Hs.166017
4286	Hs.618266
57496	Hs.49143
57496	Hs.683854
4298	Hs.10095
4300	Hs.317248
4300	Hs.591085
4331	Hs.509523
4335	Hs.626579
4335	Hs.632239
4487	Hs.424414
4488	Hs.89404
9219	Hs.173043
4520	Hs.471991
4601	Hs.602078
4601	Hs.728542
4603	Hs.445898
4609	Hs.202453
50804	Hs.6638
50804	Hs.653123
4618	Hs.35937
4654	Hs.181768
4656	Hs.2830
4661	Hs.279562
23040	Hs.434418
23040	Hs.669852
7593	Hs.399810
7593	Hs.684624
79923	Hs.635882
8202	Hs.592142
8031	Hs.643658
8031	Hs.709644
57727	Hs.654991
135112	Hs.171426
9611	Hs.462323
4760	Hs.574626
4760	Hs.709709
63974	Hs.45152
50674	Hs.532682
4772	Hs.534074
4772	Hs.701518
4773	Hs.744148
4775	Hs.436585
4776	Hs.77810
4778	Hs.75643
4779	Hs.514284
9603	Hs.404741
9603	Hs.712898
4774	Hs.740757
4774	Hs.744898
4782	Hs.170131
4784	Hs.257970
4790	Hs.618430
4791	Hs.73090
4799	Hs.413074
4800	Hs.10441
4807	Hs.30956
4808	Hs.46296
7080	Hs.94367
1482	Hs.54473
4824	Hs.55999
579	Hs.590927
4854	Hs.8546
266743	Hs.256036
190	Hs.268490
9572	Hs.724
9572	Hs.592130
7376	Hs.432976
10062	Hs.438863
9971	Hs.282735
9971	Hs.732506
8856	Hs.7303
9970	Hs.349642
7181	Hs.108301
7181	Hs.707524
10002	Hs.187354
10002	Hs.636007
7025	Hs.519445
7026	Hs.347991
2063	Hs.466148
2908	Hs.122926
4306	Hs.163924
3164	Hs.524430
3164	Hs.670088
4929	Hs.563344
2516	Hs.495108
2494	Hs.33446
2649	Hs.20131
2649	Hs.586460
3084	Hs.453951
3084	Hs.668810
4901	Hs.652297
10215	Hs.176977
10215	Hs.732068
58495	Hs.661013
58495	Hs.710157
23598	Hs.731398
5076	Hs.155644
5077	Hs.42146
5078	Hs.129706
5079	Hs.654464
5081	Hs.113253
5083	Hs.132576
5083	Hs.609574
5087	Hs.557097
5090	Hs.428027
5092	Hs.3192
3651	Hs.32938
11331	Hs.504620
401	Hs.731115
8929	Hs.87202
10401	Hs.435761
51588	Hs.105779
5300	Hs.465849
5307	Hs.84136
5308	Hs.643588
5308	Hs.738484
5309	Hs.137568
5316	Hs.431043
5324	Hs.14968
5371	Hs.526464
5371	Hs.654583
5430	Hs.270017
5431	Hs.602757
5450	Hs.654525
5451	Hs.283402
5452	Hs.147381
5453	Hs.1837
5456	Hs.2229
5457	Hs.654522
5459	Hs.553499
5460	Hs.249184
5463	Hs.555886
5465	Hs.103110
5465	Hs.710044
5467	Hs.696032
5468	Hs.162646
10113	Hs.279784
5626	Hs.158301
5396	Hs.283416
51450	Hs.660115
256297	Hs.351503
5813	Hs.443121
5813	Hs.733524
5814	Hs.349150
5814	Hs.596321
5914	Hs.654583
5915	Hs.543218
5915	Hs.581530
5915	Hs.654490
5915	Hs.733004
5916	Hs.1497
5916	Hs.733399
30062	Hs.278957
5925	Hs.408528
3516	Hs.479396
11317	Hs.248217
11317	Hs.278489
5966	Hs.631886
5966	Hs.633256
5970	Hs.502875
5978	Hs.307836
5989	Hs.655215
6015	Hs.631989
9604	Hs.483616
6095	Hs.560343
6096	Hs.494178
6129	Hs.421257
6129	Hs.571841
6130	Hs.499839
6239	Hs.298248
861	Hs.149261
861	Hs.612648
861	Hs.705364
862	Hs.368431
862	Hs.739194
860	Hs.535845
6256	Hs.590886
6257	Hs.388034
6299	Hs.135787
6297	Hs.416358
6297	Hs.745364
57167	Hs.517113
29950	Hs.269898
25942	Hs.513039
23309	Hs.13999
10736	Hs.101937
6496	Hs.567336
51804	Hs.97849
51804	Hs.690393
6498	Hs.536655
6498	Hs.581632
6605	Hs.743978
6615	Hs.48029
6591	Hs.360174
6621	Hs.113265
8926	Hs.564847
22938	Hs.445498
6656	Hs.202526
6663	Hs.376984
6664	Hs.432638
64321	Hs.98367
54345	Hs.8619
6657	Hs.518438
6657	Hs.732963
11166	Hs.187577
6658	Hs.157429
6660	Hs.434948
6660	Hs.657542
6660	Hs.742277
6662	Hs.647409
6667	Hs.620754
6667	Hs.649191
6672	Hs.369056
6670	Hs.531587
121340	Hs.209402
121340	Hs.742807
25803	Hs.485158
6688	Hs.502511
84654	Hs.519403
10011	Hs.653135
6722	Hs.520140
6736	Hs.1992
6749	Hs.523680
6774	Hs.463059
6776	Hs.437058
6777	Hs.595276
6778	Hs.524518
10923	Hs.229641
6862	Hs.389457
6862	Hs.742027
6872	Hs.158560
6882	Hs.112444
6883	Hs.530251
9015	Hs.153088
9013	Hs.153022
6873	Hs.122752
83860	Hs.527688
83860	Hs.709995
6879	Hs.438838
6880	Hs.653163
6886	Hs.705618
6886	Hs.737706
10716	Hs.210862
10716	Hs.592557
9095	Hs.716656
57057	Hs.404167
6910	Hs.381715
6938	Hs.511504
6942	Hs.475018
6929	Hs.371282
6929	Hs.657044
6925	Hs.605153
6925	Hs.742885
83439	Hs.516297
6934	Hs.593995
6996	Hs.584809
7003	Hs.655331
8463	Hs.515534
7005	Hs.485205
7004	Hs.94865
7008	Hs.181159
7019	Hs.594250
7020	Hs.519880
339488	Hs.567844
7024	Hs.48849
7027	Hs.79353
7030	Hs.730740
7050	Hs.373550
7067	Hs.724
7088	Hs.197320
7088	Hs.689805
79816	Hs.334507
3195	Hs.89583
7110	Hs.267632
10210	Hs.589962
10155	Hs.467408
9321	Hs.632339
9321	Hs.741740
8295	Hs.203952
7270	Hs.54780
7270	Hs.732733
7291	Hs.66744
7291	Hs.644998
7342	Hs.729120
7343	Hs.89781
7391	Hs.414880
7392	Hs.454534
8433	Hs.458406
7421	Hs.524368
7716	Hs.463569
7490	Hs.591980
25937	Hs.477921
7494	Hs.437638
4904	Hs.473583
7528	Hs.388927
7528	Hs.603118
7704	Hs.591945
7704	Hs.682144
10009	Hs.143604
6935	Hs.124503
9839	Hs.34871
161882	Hs.632218
7545	Hs.598590
7545	Hs.647962
7546	Hs.653700
85416	Hs.508570
