5595
332
6772
3269
4783
5781
6778
1051
5970
7297
5970
2625
5600
8202
2242
3717
6464
4790
9655
6198
2033
1050
867
5777
1386
6778
3635
3667
8660
5296
572
8651
9846
1432
2002
3565
3716
6777
3561
207
6778
6654
2353
3566
6778
6774
5594
5594
5595
5290
2885
5293
3718
5921
5921
6776
5295
6778
6778
5590
4790
4792
3551
1147
9021
6772
6777
6774
6776
