CLID	ToppGene	Embryonic Lethality
Cluster1	cell cycle; chromosome organization	Yes
Cluster2	lipid metabolism; liver; cytochrome p450	No
Cluster3	extracellular matrix; angiogenesis	No
Cluster4	synaptic signaling; neuron; synapse;	No
Cluster5	cell cycle; condensed chromosome	Yes
Cluster6	transcription factor activity; mitochondria	No
Cluster7	cell cycle	Yes
Cluster8	mitochondrial; post-synapse; guanyl-nucleotide activity; lung; breast; ovary; testis	No
Cluster9	neuropeptide; synaptic signaling; abnormal pterygopalatine ganglion morphology	No
Cluster10	transcription factor activity; centrosome; microtubule	No
Cluster11	apoptosis; gametogenesis	No
Cluster12	microtubule; centriole; stem cell	No
Cluster13	cytokine receptor activity; immune response; lymphadenopathy	No
Cluster14	regionalization; vertebral transformation; leukemia	No
Cluster15	collagen; thyroid; thyroid hormone synthesis	No
Cluster16	muscle	No
Cluster17	melanin; melanosome	No
Cluster18	epithelium development; abnormal digestive system development; keratinization	No
Cluster19	extracellular matrix; epithelium development; collagens; keratins	No
Cluster20	eye lens; reproduction; gametogenesis; pluripotent stem cells; TGCT	Yes
Cluster21	cytoskeleton; tubulin binding; cell cycle; neuron; 	Yes
Cluster22	Pol II; uveitis; abnormla myeloid cell morphology; ovary; trachea; lung	No
Cluster23	NADH dehydrogenase activity; oxidative phosphorylation; respiratory electron transport;	Yes
Cluster24	NADH dehydrogenase activity; oxidative phosphorylation; developing kidney	Yes
Cluster25	immune response; leukocyte activation;	No
Cluster26	fatty acid binding; dogestion; microvillus; intestinal epithelium	No
Cluster27	structural constituent of ribosome; endoplasmic reticulum; eukaryotic translation	Yes
Cluster28	CNS development; growth cone; forebrain;	No
Cluster29	growth factor binding; angiogenesis; focal adhesion; 	Yes
Cluster30	cell-cell adhesion; cell-cell junction; digestive system; claudins	No
